{
	"npmClient": "yarn",
	"allowBranch": [
		"master"
	],
	"packages": [
		"demo/*",
		"packages/*"
	],
	"changelogPreset": "angular",
	"ignoreChanges": [
		"**/*.md",
		"**/CHANGELOG.md",
		"**/__tests__/**",
		"**/dist/**",
		"**/node_modules/**",
		"**/package.json",
		"**/perf/**"
	],
	"publish": {
		"conventionalCommits": true,
		"registry": "https://registry.npmjs.org/"
	},
	"version": "4.13.2"
}
